Project 1: Exploratory Data Analysis
…
The join performed was a left join. The left join will include all of the data in the EADA dataset after selecting all the public Texas schools and variables of interest (Texas). All 72 observations in the Texas dataset are in the final joined dataset texas.

The dataset from the 30x60TX Texas Higher Education Almanac (almanac) adds two variables to our joined dataset: students enrolled (students) and average tuition and fees (tuition). All 72 schools found in the Texas dataset had a counterpart in the almanac dataset.

# Almanac entries not included
almanac %>% filter(!(institution %in% texas$institution)) %>% 
    summarize(unique(institution))

## # A tibble: 53 x 1
##    `unique(institution)`               
##    <chr>                               
##  1 Alamo Community College District    
##  2 Alamo CCD-Northeast Lakeview College
##  3 Alamo CCD-Northwest Vista College   
##  4 Alamo CCD-Palo Alto College         
##  5 Alamo CCD-San Antonio College       
##  6 Alamo CCD-St. Philip’s College      
##  7 Amarillo College                    
##  8 Austin Community College            
##  9 Brazosport College                  
## 10 Central Texas College               
## # ... with 43 more rows
…
The correlation was calculated for each pair of numeric variables. The correlation will be further discussed with the correlation heatmap.

Numeric Variables

# Arranging by tuition and revenuce
texas %>% select(institution, tuition, revenue) %>% arrange(desc(tuition))

## # A tibble: 72 x 3
##    institution                          tuition   revenue
##    <chr>                                  <dbl>     <dbl>
##  1 The University of Texas at Dallas      13034   2692465
##  2 University of North Texas              11514  40758584
##  3 Texas Tech University                  11046  86442709
##  4 Texas State University                 10920  36634363
##  5 University of Houston                  10890  68285574
##  6 Prairie View A&M University            10534  13287492
##  7 The University of Texas at Austin      10398 215829101
##  8 Texas A&M University-College Station   10316 160101611
##  9 Stephen F. Austin State University     10288  17493553
## 10 The University of Texas at Arlington   10250  16977211
## # ... with 62 more rows

texas %>% select(institution, expense, revenue) %>% arrange(desc(revenue))

## # A tibble: 72 x 3
##    institution                              expense   revenue
##    <chr>                                      <dbl>     <dbl>
##  1 The University of Texas at Austin      175172054 215829101
##  2 Texas A&M University-College Station   145678287 160101611
##  3 Texas Tech University                   83701980  86442709
##  4 University of Houston                   68285574  68285574
##  5 University of North Texas               39908256  40758584
##  6 Texas State University                  36634363  36634363
##  7 The University of Texas at El Paso      33313800  33740768
##  8 The University of Texas at San Antonio  31155038  31155038
##  9 Lamar University                        18525161  18643060
## 10 Sam Houston State University            17780296  18429638
## # ... with 62 more rows

texas %>% select(institution, tuition, revenue) %>% arrange(-desc(tuition))

## # A tibble: 72 x 3
##    institution                              tuition revenue
##    <chr>                                      <dbl>   <dbl>
##  1 Collin County Community College District    1520  697199
##  2 Brookhaven College                          1770  556941
##  3 Cedar Valley College                        1770  553012
##  4 Eastfield College                           1770  532608
##  5 Mountain View College                       1770  678886
##  6 North Lake College                          1770  369536
##  7 Richland College                            1770  557412
##  8 San Jacinto Community College               1860 1241878
##  9 Alvin Community College                     1998  518559
## 10 Galveston College                           2050  594228
## # ... with 62 more rows

texas %>% select(institution, expense, revenue) %>% arrange(-desc(revenue))

## # A tibble: 72 x 3
##    institution                     expense revenue
##    <chr>                             <dbl>   <dbl>
##  1 Southwest Texas Junior College   284483  284483
##  2 North Lake College               343036  369536
##  3 Alvin Community College          518559  518559
##  4 Eastfield College                520569  532608
##  5 Cedar Valley College             553012  553012
##  6 Brookhaven College               556941  556941
##  7 Richland College                 557412  557412
##  8 Galveston College                594228  594228
##  9 Lamar State College-Port Arthur  630315  630315
## 10 Mountain View College            678886  678886
## # ... with 62 more rows
…
I grouped my data by sector and by athletics classification. There are two different public sectors: two-year or four-year. There are seven different classifications found in our dataset: NJCAA Division I, NJCAA Division III, NAIA Division I, NCAA Division I, NCAA Division II, NCAA Division III, and Other. The mean for all numerical values was calculated after grouping. NCAA Division I schools, all 4-year institutions, had the greatest average for all numerical variables. NJCAA Division I schools have more financial aid on athletes than NCAA Division III schools despite a lower tuition rate and profit from the athletics departments.

Tidying: Rearranging Wide/Long

texas %>% pivot_longer(student_aid:expense, names_to = "flow") %>% 
    separate(class, into = c("association", "blank", "division"), 
        sep = " ") %>% mutate(cash = value/(students * tuition)) %>% 
    select(institution, association, division, flow, cash) %>% 
    arrange(desc(cash))

## # A tibble: 216 x 5
##    institution                          association division flow     cash
##    <chr>                                <chr>       <chr>    <chr>   <dbl>
##  1 Western Texas College                NJCAA       I        revenue 0.546
##  2 Western Texas College                NJCAA       I        expense 0.523
##  3 The University of Texas at Austin    NCAA        I        revenue 0.402
##  4 Ranger College                       NJCAA       I        revenue 0.380
##  5 Ranger College                       NJCAA       I        expense 0.380
##  6 The University of Texas at Austin    NCAA        I        expense 0.326
##  7 Frank Phillips College               NJCAA       I        revenue 0.245
##  8 Frank Phillips College               NJCAA       I        expense 0.245
##  9 Texas A&M University-College Station NCAA        I        revenue 0.244
## 10 Panola College                       Other       <NA>     revenue 0.239
## # ... with 206 more rows
…
